%YAML 1.1
%TAG !u! tag:unity3d.com,2011:
--- !u!181963792 &2655988077585873504
Preset:
  m_ObjectHideFlags: 0
  m_CorrespondingSourceObject: {fileID: 0}
  m_PrefabInternal: {fileID: 0}
  m_Name: 5mm
  m_TargetType:
    m_NativeTypeID: 114
    m_ManagedTypePPtr: {fileID: 11500000, guid: fe240b631ebad9b4da44550d01a82737,
      type: 3}
    m_ManagedTypeFallback: 
  m_Properties:
  - target: {fileID: 0}
    propertyPath: m_Enabled
    value: 1
    objectReference: {fileID: 0}
  - target: {fileID: 0}
    propertyPath: m_EditorHideFlags
    value: 0
    objectReference: {fileID: 0}
  - target: {fileID: 0}
    propertyPath: m_Name
    value: 
    objectReference: {fileID: 0}
  - target: {fileID: 0}
    propertyPath: m_EditorClassIdentifier
    value: 
    objectReference: {fileID: 0}
  - target: {fileID: 0}
    propertyPath: shootingDelay
    value: 0.1
    objectReference: {fileID: 0}
  - target: {fileID: 0}
    propertyPath: range
    value: 10
    objectReference: {fileID: 0}
  - target: {fileID: 0}
    propertyPath: dispersion
    value: 45
    objectReference: {fileID: 0}
  - target: {fileID: 0}
    propertyPath: dispersionAiming
    value: 10
    objectReference: {fileID: 0}
  - target: {fileID: 0}
    propertyPath: shootSpeed
    value: 25
    objectReference: {fileID: 0}
  - target: {fileID: 0}
    propertyPath: lifeTime
    value: 0.2
    objectReference: {fileID: 0}
  - target: {fileID: 0}
    propertyPath: calibre
    value: 1
    objectReference: {fileID: 0}
  - target: {fileID: 0}
    propertyPath: clipCapacity
    value: 8
    objectReference: {fileID: 0}
  - target: {fileID: 0}
    propertyPath: clipAmmo
    value: 0
    objectReference: {fileID: 0}
  - target: {fileID: 0}
    propertyPath: bulletPrefab
    value: 
    objectReference: {fileID: 50399750210252366, guid: 56aaf2edda5aaf04580266b73d91c7fd,
      type: 2}
  - target: {fileID: 0}
    propertyPath: shootingMode
    value: 2
    objectReference: {fileID: 0}
